# Generalities
Title = "Copper"
CalculationMode = pp
Verbose = 40

# PseudoPotentials
%PPComponents
 4 | 0 | 2.0 | tm
 4 | 1 | 2.0 | tm
 3 | 2 | 2.0 | tm
%

CoreCorrection = 1
CoreCorrectionCutoff = 0.75
